<Qucs Schematic 0.0.18>
<Properties>
  <View=0,-132,914,704,1.21,0,0>
  <Grid=10,10,0>
  <DataSet=ej2.dat>
  <DataDisplay=ej2.dpl>
  <OpenDisplay=1>
  <Script=ej2.m>
  <RunScript=0>
  <showFrame=0>
  <FrameText0=Título>
  <FrameText1=Dibujado por:>
  <FrameText2=Fecha:>
  <FrameText3=Revisión:>
</Properties>
<Symbol>
</Symbol>
<Components>
  <R R1 1 300 180 -26 15 0 0 "1000 Ohm" 1 "26.85" 0 "0.0" 0 "0.0" 0 "26.85" 0 "US" 0>
  <GND * 1 140 210 0 0 0 0>
  <L L1 1 380 240 10 -26 0 1 "1 H" 1 "" 0>
  <C C3 1 280 310 -26 -55 0 2 "1 F" 1 "" 0 "neutral" 0>
  <Pac P1 1 190 350 18 -26 0 1 "1" 1 "50 Ohm" 1 "0 dBm" 0 "1 GHz" 0 "26.85" 0>
  <GND * 1 190 420 0 0 0 0>
  <IProbe Icc 1 640 180 -26 16 1 2>
  <L L2 1 510 240 10 -26 0 1 "1 H" 1 "" 0>
  <GND * 1 750 260 0 0 0 0>
  <Vdc V1 1 750 220 18 -26 0 1 "10 V" 1>
  <C C4 1 640 300 -26 -55 0 2 "1 F" 1 "" 0 "neutral" 0>
  <Pac P2 1 700 350 18 -26 0 1 "2" 1 "50 Ohm" 1 "0 dBm" 0 "1 GHz" 0 "26.85" 0>
  <GND * 1 700 420 0 0 0 0>
  <GND * 1 510 420 0 0 0 0>
  <C C2 1 510 130 17 -26 0 1 "1 F" 1 "" 0 "neutral" 0>
  <C C1 1 380 130 17 -26 0 1 "1 F" 1 "" 0 "neutral" 0>
  <GND * 1 380 80 0 0 0 2>
  <GND * 1 510 80 0 0 0 2>
  <Idc I1 1 210 180 -26 18 0 0 "0.155 mA" 1>
  <.SP SP2 1 170 -60 0 79 0 0 "log" 1 "1 MHz" 1 "5000 MHz" 1 "4000" 1 "no" 0 "1" 0 "2" 0 "no" 0 "no" 0>
  <_BJT BFR92A_1_mod 1 510 350 8 -26 0 0 "pnp" 0 "4.11877E-016" 0 "1" 0 "1" 0 "3.20054E+000" 0 "1.28155E+000" 0 "6.26719E+001" 0 "3.36915E+000" 0 " 4.01062E-015" 0 "1.57708E+000" 0 "2.79905E-016" 0 "1.07543E+000" 0 "314" 0 "1.81086E+001" 0 "1.00000E+001" 0 "1.00000E-006" 0 "2.32000E+000" 0 "1.16450E+000" 0 "1.00000E+001" 0 "8.90512E-013" 0 "6.00000E-001" 0 "2.58570E-001" 0 "5.46563E-013" 0 "3.80824E-001" 0 "2.02935E-001" 0 "1" 0 "0" 0 "0.75" 0 "0" 0 "0.5" 0 "1.54973E-011" 0 "3.91402E+001" 0 "2.15279E+000" 0 "2.13776E-001" 0 "3.04e-07" 0 "26.85" 0 "0" 0 "1" 0 "1" 0 "0" 0 "1" 0 "1" 0 "0" 0 "1.5" 0 "3.00000E+000" 0 "1.11" 0 "26.85" 0 "1" 0>
  <.DC DC1 1 440 -50 0 36 0 0 "26.85" 0 "0.001" 0 "1 pA" 0 "1 uV" 0 "no" 0 "150" 0 "no" 0 "none" 0 "CroutLU" 0>
</Components>
<Wires>
  <380 180 380 210 "" 0 0 0 "">
  <380 270 380 310 "" 0 0 0 "">
  <330 180 380 180 "" 0 0 0 "">
  <310 310 380 310 "" 0 0 0 "">
  <190 310 250 310 "" 0 0 0 "">
  <190 310 190 320 "" 0 0 0 "">
  <190 380 190 420 "" 0 0 0 "">
  <380 310 380 350 "" 0 0 0 "">
  <380 350 480 350 "" 0 0 0 "">
  <510 180 510 210 "" 0 0 0 "">
  <510 180 610 180 "" 0 0 0 "">
  <750 250 750 260 "" 0 0 0 "">
  <750 180 750 190 "" 0 0 0 "">
  <670 180 750 180 "" 0 0 0 "">
  <670 300 700 300 "" 0 0 0 "">
  <700 300 700 320 "" 0 0 0 "">
  <700 380 700 420 "" 0 0 0 "">
  <510 300 610 300 "" 0 0 0 "">
  <510 270 510 300 "" 0 0 0 "">
  <510 300 510 320 "" 0 0 0 "">
  <510 380 510 420 "" 0 0 0 "">
  <510 160 510 180 "" 0 0 0 "">
  <380 160 380 180 "" 0 0 0 "">
  <380 80 380 100 "" 0 0 0 "">
  <510 80 510 100 "" 0 0 0 "">
  <140 180 140 210 "" 0 0 0 "">
  <140 180 180 180 "" 0 0 0 "">
  <240 180 270 180 "" 0 0 0 "">
</Wires>
<Diagrams>
</Diagrams>
<Paintings>
</Paintings>
