<Qucs Schematic 0.0.18>
<Properties>
  <View=0,-9,1330,665,1.1,0,0>
  <Grid=10,10,1>
  <DataSet=ej3.dat>
  <DataDisplay=ej3.dpl>
  <OpenDisplay=1>
  <Script=ej3.m>
  <RunScript=0>
  <showFrame=0>
  <FrameText0=Título>
  <FrameText1=Dibujado por:>
  <FrameText2=Fecha:>
  <FrameText3=Revisión:>
</Properties>
<Symbol>
</Symbol>
<Components>
  <_BJT Q2N4410_1 1 540 410 8 -26 0 0 "npn" 0 "5.911f" 0 "1" 0 "1" 0 "12.6m" 0 "0" 0 "62.37" 0 "0" 0 "5.911f" 0 "1.278" 0 "0" 0 "2" 0 "413.6" 0 "1.361" 0 "0" 0 "0" 0 "1.61" 0 "0" 0 "10" 0 "4.973p" 0 "0.75" 0 "0.4146" 0 "4.017p" 0 "0.75" 0 "0.3174" 0 "1" 0 "0" 0 "0.75" 0 "0" 0 "0.5" 0 "818.4p" 0 "7" 0 "4" 0 "0.35" 0 "4.749n" 0 "26.85" 0 "0" 0 "1" 0 "1" 0 "0" 0 "1" 0 "1" 0 "0" 0 "1.5" 0 "3" 0 "1.11" 0 "26.85" 0 "1" 0>
  <R R4 1 540 500 15 -26 0 1 "120 Ohm" 1 "26.85" 0 "0.0" 0 "0.0" 0 "26.85" 0 "european" 0>
  <L L1 1 340 200 -26 10 0 0 "1 H" 1 "" 0>
  <Vdc V1 1 220 230 18 -26 0 1 "12 V" 1>
  <GND * 1 220 260 0 0 0 0>
  <GND * 1 260 360 0 0 0 0>
  <L L3 1 540 310 10 -26 0 1 "1 H" 1 "" 0>
  <R R3 1 540 240 15 -26 0 1 "75 Ohm" 1 "26.85" 0 "0.0" 0 "0.0" 0 "26.85" 0 "european" 0>
  <R R2 1 400 270 15 -26 0 1 "8200 Ohm" 1 "26.85" 0 "0.0" 0 "0.0" 0 "26.85" 0 "european" 0>
  <L L5 1 700 420 10 -26 0 1 "200nH" 1 "" 0>
  <GND * 1 700 490 0 0 0 0>
  <C C4 1 800 360 -26 17 0 0 "12.6 pF" 1 "" 0 "neutral" 0>
  <R R5 1 880 410 15 -26 0 1 "50 Ohm" 1 "26.85" 0 "0.0" 0 "0.0" 0 "26.85" 0 "european" 0>
  <GND * 1 880 490 0 0 0 0>
  <L L2 1 450 330 -26 10 0 0 "1 H" 1 "" 0>
  <R R1 1 340 330 -26 15 0 0 "9000 Ohm" 1 "26.85" 0 "0.0" 0 "0.0" 0 "26.85" 0 "european" 0>
  <GND * 1 540 540 0 0 0 0>
  <C C1 1 500 500 -88 -26 1 1 "330 pF" 1 "" 0 "neutral" 0>
  <GND * 1 500 540 0 0 0 0>
  <GND * 1 120 530 0 0 0 0>
  <Pac P1 1 120 470 18 -26 0 1 "1" 1 "50 Ohm" 1 "2 mW" 1 "100 MHz" 1 "26.85" 0>
  <GND * 1 270 530 0 0 0 0>
  <L L4 1 270 450 10 -26 0 1 "40 nH" 1 "" 0>
  <C C2 1 390 410 -26 17 0 0 "82.5 pF" 1 "" 0 "neutral" 0>
  <C C3 1 630 360 -26 -55 1 0 "40 pF" 1 "" 0 "neutral" 0>
  <.TR TR1 1 730 130 0 67 0 0 "lin" 1 "10 us" 1 "1 us" 1 "5000" 1 "Trapezoidal" 0 "2" 0 "1 ns" 0 "1e-16" 0 "150" 0 "0.001" 0 "1 pA" 0 "1 uV" 0 "26.85" 0 "1e-3" 0 "1e-6" 0 "1" 0 "CroutLU" 0 "no" 0 "yes" 0 "0" 0>
</Components>
<Wires>
  <540 440 540 450 "" 0 0 0 "">
  <540 450 540 470 "" 0 0 0 "">
  <490 410 510 410 "" 0 0 0 "">
  <400 200 400 240 "" 0 0 0 "">
  <370 200 400 200 "" 0 0 0 "">
  <220 200 310 200 "" 0 0 0 "">
  <540 340 540 360 "" 0 0 0 "">
  <540 270 540 280 "" 0 0 0 "">
  <540 200 540 210 "" 0 0 0 "">
  <400 200 540 200 "" 0 0 0 "">
  <700 450 700 490 "" 0 0 0 "">
  <700 360 700 390 "" 0 0 0 "">
  <700 360 770 360 "" 0 0 0 "">
  <660 360 700 360 "" 0 0 0 "">
  <540 360 540 380 "" 0 0 0 "">
  <540 360 600 360 "" 0 0 0 "">
  <830 360 880 360 "" 0 0 0 "">
  <880 360 880 380 "" 0 0 0 "">
  <880 440 880 490 "" 0 0 0 "">
  <490 330 490 410 "" 0 0 0 "">
  <480 330 490 330 "" 0 0 0 "">
  <260 330 260 360 "" 0 0 0 "">
  <260 330 310 330 "" 0 0 0 "">
  <370 330 400 330 "" 0 0 0 "">
  <400 330 420 330 "" 0 0 0 "">
  <400 300 400 330 "" 0 0 0 "">
  <540 530 540 540 "" 0 0 0 "">
  <500 450 540 450 "" 0 0 0 "">
  <500 450 500 470 "" 0 0 0 "">
  <500 530 500 540 "" 0 0 0 "">
  <120 500 120 530 "" 0 0 0 "">
  <120 410 120 440 "" 0 0 0 "">
  <120 410 270 410 "" 0 0 0 "">
  <270 410 270 420 "" 0 0 0 "">
  <270 480 270 530 "" 0 0 0 "">
  <420 410 490 410 "" 0 0 0 "">
  <270 410 360 410 "" 0 0 0 "">
  <880 360 880 360 "Vout" 910 330 0 "">
</Wires>
<Diagrams>
</Diagrams>
<Paintings>
</Paintings>
