(export (version D)
  (design
    (source /home/antonino/kicad/mod_fm/mod_fm.sch)
    (date "Wed 04 Sep 2019 01:31:27 AM -03")
    (tool "Eeschema 5.1.4")
    (sheet (number 1) (name /) (tstamps /)
      (title_block
        (title "Modulador FM")
        (company)
        (rev)
        (date 2019-09-02)
        (source mod_fm.sch)
        (comment (number 1) (value ""))
        (comment (number 2) (value ""))
        (comment (number 3) (value ""))
        (comment (number 4) (value "")))))
  (components
    (comp (ref Q1)
      (value BF495)
      (footprint Package_TO_SOT_THT:TO-92_HandSolder)
      (datasheet http://www.fairchildsemi.com/ds/BU/BUT11.pdf)
      (libsource (lib Transistor_BJT) (part BF495) (description "5A Ic, 400V Vce, Silicon Power NPN Transistors, TO-220"))
      (sheetpath (names /) (tstamps /))
      (tstamp 5D68776A))
    (comp (ref R4)
      (value 500)
      (footprint Resistor_THT:R_Axial_DIN0207_L6.3mm_D2.5mm_P10.16mm_Horizontal)
      (datasheet ~)
      (libsource (lib Device) (part R) (description Resistor))
      (sheetpath (names /) (tstamps /))
      (tstamp 5D6885E0))
    (comp (ref R3)
      (value 10k)
      (footprint Resistor_THT:R_Axial_DIN0207_L6.3mm_D2.5mm_P10.16mm_Horizontal)
      (datasheet ~)
      (libsource (lib Device) (part R) (description Resistor))
      (sheetpath (names /) (tstamps /))
      (tstamp 5D688B5E))
    (comp (ref R2)
      (value 10k)
      (footprint Resistor_THT:R_Axial_DIN0207_L6.3mm_D2.5mm_P10.16mm_Horizontal)
      (datasheet ~)
      (libsource (lib Device) (part R) (description Resistor))
      (sheetpath (names /) (tstamps /))
      (tstamp 5D688CB0))
    (comp (ref R5)
      (value 100)
      (footprint Resistor_THT:R_Axial_DIN0207_L6.3mm_D2.5mm_P10.16mm_Horizontal)
      (datasheet ~)
      (libsource (lib Device) (part R) (description Resistor))
      (sheetpath (names /) (tstamps /))
      (tstamp 5D68977D))
    (comp (ref C4)
      (value 33pF)
      (footprint Capacitor_THT:C_Disc_D5.0mm_W2.5mm_P5.00mm)
      (datasheet ~)
      (libsource (lib Device) (part C) (description "Unpolarized capacitor"))
      (sheetpath (names /) (tstamps /))
      (tstamp 5D68A17C))
    (comp (ref C2)
      (value 100pF)
      (footprint Capacitor_THT:C_Disc_D5.0mm_W2.5mm_P5.00mm)
      (datasheet ~)
      (libsource (lib Device) (part C) (description "Unpolarized capacitor"))
      (sheetpath (names /) (tstamps /))
      (tstamp 5D68F28D))
    (comp (ref C3)
      (value 100pF)
      (footprint Capacitor_THT:C_Disc_D5.0mm_W2.5mm_P5.00mm)
      (datasheet ~)
      (libsource (lib Device) (part C) (description "Unpolarized capacitor"))
      (sheetpath (names /) (tstamps /))
      (tstamp 5D68F70F))
    (comp (ref C1)
      (value 22.2pF)
      (footprint Capacitor_THT:C_Disc_D5.0mm_W2.5mm_P5.00mm)
      (datasheet ~)
      (libsource (lib Device) (part C) (description "Unpolarized capacitor"))
      (sheetpath (names /) (tstamps /))
      (tstamp 5D69ABF3))
    (comp (ref D1)
      (value BB505B)
      (footprint Diode_THT:D_DO-35_SOD27_P7.62mm_Horizontal)
      (datasheet ~)
      (libsource (lib Device) (part D_Capacitance) (description "Variable capacitance diode"))
      (sheetpath (names /) (tstamps /))
      (tstamp 5D69C4AE))
    (comp (ref J2)
      (value Generador)
      (footprint Connector_PinHeader_2.54mm:PinHeader_1x02_P2.54mm_Vertical)
      (datasheet ~)
      (libsource (lib Connector_Generic) (part Conn_01x02) (description "Generic connector, single row, 01x02, script generated (kicad-library-utils/schlib/autogen/connector/)"))
      (sheetpath (names /) (tstamps /))
      (tstamp 5D6AEE43))
    (comp (ref J1)
      (value 12V)
      (footprint Connector_PinHeader_2.54mm:PinHeader_1x02_P2.54mm_Vertical)
      (datasheet ~)
      (libsource (lib Connector_Generic) (part Conn_01x02) (description "Generic connector, single row, 01x02, script generated (kicad-library-utils/schlib/autogen/connector/)"))
      (sheetpath (names /) (tstamps /))
      (tstamp 5D6AF7B1))
    (comp (ref J3)
      (value Salida)
      (footprint Connector_PinHeader_2.54mm:PinHeader_1x02_P2.54mm_Vertical)
      (datasheet ~)
      (libsource (lib Connector_Generic) (part Conn_01x02) (description "Generic connector, single row, 01x02, script generated (kicad-library-utils/schlib/autogen/connector/)"))
      (sheetpath (names /) (tstamps /))
      (tstamp 5D6B5223))
    (comp (ref R6)
      (value 100)
      (footprint Resistor_THT:R_Axial_DIN0207_L6.3mm_D2.5mm_P10.16mm_Horizontal)
      (datasheet ~)
      (libsource (lib Device) (part R) (description Resistor))
      (sheetpath (names /) (tstamps /))
      (tstamp 5D6D3041))
    (comp (ref L1)
      (value 120nH)
      (footprint Inductor_THT:L_Axial_L7.0mm_D3.3mm_P12.70mm_Horizontal_Fastron_MICC)
      (datasheet ~)
      (libsource (lib Device) (part L) (description Inductor))
      (sheetpath (names /) (tstamps /))
      (tstamp 5D69A02C))
    (comp (ref R1)
      (value 10k)
      (footprint Resistor_THT:R_Axial_DIN0207_L6.3mm_D2.5mm_P10.16mm_Horizontal)
      (datasheet ~)
      (libsource (lib Device) (part R) (description Resistor))
      (sheetpath (names /) (tstamps /))
      (tstamp 5D6F6F9E)))
  (libparts
    (libpart (lib Connector_Generic) (part Conn_01x02)
      (description "Generic connector, single row, 01x02, script generated (kicad-library-utils/schlib/autogen/connector/)")
      (docs ~)
      (footprints
        (fp Connector*:*_1x??_*))
      (fields
        (field (name Reference) J)
        (field (name Value) Conn_01x02))
      (pins
        (pin (num 1) (name Pin_1) (type passive))
        (pin (num 2) (name Pin_2) (type passive))))
    (libpart (lib Device) (part C)
      (description "Unpolarized capacitor")
      (docs ~)
      (footprints
        (fp C_*))
      (fields
        (field (name Reference) C)
        (field (name Value) C))
      (pins
        (pin (num 1) (name ~) (type passive))
        (pin (num 2) (name ~) (type passive))))
    (libpart (lib Device) (part D_Capacitance)
      (description "Variable capacitance diode")
      (docs ~)
      (footprints
        (fp TO-???*)
        (fp *_Diode_*)
        (fp *SingleDiode*)
        (fp D_*))
      (fields
        (field (name Reference) D)
        (field (name Value) D_Capacitance))
      (pins
        (pin (num 1) (name K) (type passive))
        (pin (num 2) (name A) (type passive))))
    (libpart (lib Device) (part L)
      (description Inductor)
      (docs ~)
      (footprints
        (fp Choke_*)
        (fp *Coil*)
        (fp Inductor_*)
        (fp L_*))
      (fields
        (field (name Reference) L)
        (field (name Value) L))
      (pins
        (pin (num 1) (name 1) (type passive))
        (pin (num 2) (name 2) (type passive))))
    (libpart (lib Device) (part R)
      (description Resistor)
      (docs ~)
      (footprints
        (fp R_*))
      (fields
        (field (name Reference) R)
        (field (name Value) R))
      (pins
        (pin (num 1) (name ~) (type passive))
        (pin (num 2) (name ~) (type passive))))
    (libpart (lib Transistor_BJT) (part BF495)
      (aliases
        (alias BUT11A_copy))
      (description "5A Ic, 400V Vce, Silicon Power NPN Transistors, TO-220")
      (docs http://www.fairchildsemi.com/ds/BU/BUT11.pdf)
      (footprints
        (fp TO?220*))
      (fields
        (field (name Reference) Q)
        (field (name Value) BF495)
        (field (name Footprint) Package_TO_SOT_THT:TO-220-3_Vertical))
      (pins
        (pin (num 1) (name C) (type passive))
        (pin (num 2) (name E) (type passive))
        (pin (num 3) (name B) (type input)))))
  (libraries
    (library (logical Connector_Generic)
      (uri /usr/share/kicad/library/Connector_Generic.lib))
    (library (logical Device)
      (uri /usr/share/kicad/library/Device.lib))
    (library (logical Transistor_BJT)
      (uri /usr/share/kicad/library/Transistor_BJT.lib)))
  (nets
    (net (code 1) (name GND)
      (node (ref D1) (pin 2))
      (node (ref R5) (pin 2))
      (node (ref R2) (pin 2))
      (node (ref R6) (pin 2))
      (node (ref C1) (pin 2))
      (node (ref J3) (pin 2))
      (node (ref R4) (pin 2))
      (node (ref J2) (pin 1))
      (node (ref J1) (pin 1))
      (node (ref C2) (pin 2)))
    (net (code 2) (name "Net-(C1-Pad1)")
      (node (ref C1) (pin 1))
      (node (ref L1) (pin 2))
      (node (ref R1) (pin 1))
      (node (ref D1) (pin 1)))
    (net (code 3) (name "Net-(J2-Pad2)")
      (node (ref R1) (pin 2))
      (node (ref J2) (pin 2)))
    (net (code 4) (name "Net-(C2-Pad1)")
      (node (ref R4) (pin 1))
      (node (ref Q1) (pin 2))
      (node (ref C4) (pin 2))
      (node (ref C3) (pin 2))
      (node (ref C2) (pin 1)))
    (net (code 5) (name "Net-(C4-Pad1)")
      (node (ref R6) (pin 1))
      (node (ref J3) (pin 1))
      (node (ref R5) (pin 1))
      (node (ref C4) (pin 1)))
    (net (code 6) (name "Net-(C3-Pad1)")
      (node (ref C3) (pin 1))
      (node (ref L1) (pin 1))
      (node (ref Q1) (pin 3))
      (node (ref R3) (pin 2))
      (node (ref R2) (pin 1)))
    (net (code 7) (name "Net-(J1-Pad2)")
      (node (ref J1) (pin 2))
      (node (ref R3) (pin 1))
      (node (ref Q1) (pin 1)))))