EESchema Schematic File Version 4
LIBS:mod_fm-cache
EELAYER 30 0
EELAYER END
$Descr A4 11693 8268
encoding utf-8
Sheet 1 1
Title "Modulador FM"
Date "2019-09-02"
Rev ""
Comp ""
Comment1 ""
Comment2 ""
Comment3 ""
Comment4 ""
$EndDescr
$Comp
L Transistor_BJT:BF495 Q1
U 1 1 5D68776A
P 6700 3700
F 0 "Q1" H 6892 3746 50  0000 L CNN
F 1 "BF495" H 6892 3655 50  0000 L CNN
F 2 "Package_TO_SOT_THT:TO-92_HandSolder" H 6900 3625 50  0001 L CIN
F 3 "http://www.fairchildsemi.com/ds/BU/BUT11.pdf" H 6700 3700 50  0001 L CNN
	1    6700 3700
	1    0    0    -1  
$EndComp
$Comp
L Device:R R4
U 1 1 5D6885E0
P 6800 4450
F 0 "R4" H 6870 4496 50  0000 L CNN
F 1 "500" H 6870 4405 50  0000 L CNN
F 2 "Resistor_THT:R_Axial_DIN0207_L6.3mm_D2.5mm_P10.16mm_Horizontal" V 6730 4450 50  0001 C CNN
F 3 "~" H 6800 4450 50  0001 C CNN
	1    6800 4450
	1    0    0    -1  
$EndComp
$Comp
L Device:R R3
U 1 1 5D688B5E
P 5850 3300
F 0 "R3" H 5920 3346 50  0000 L CNN
F 1 "10k" H 5920 3255 50  0000 L CNN
F 2 "Resistor_THT:R_Axial_DIN0207_L6.3mm_D2.5mm_P10.16mm_Horizontal" V 5780 3300 50  0001 C CNN
F 3 "~" H 5850 3300 50  0001 C CNN
	1    5850 3300
	1    0    0    -1  
$EndComp
$Comp
L Device:R R2
U 1 1 5D688CB0
P 5850 4250
F 0 "R2" H 5920 4296 50  0000 L CNN
F 1 "10k" H 5920 4205 50  0000 L CNN
F 2 "Resistor_THT:R_Axial_DIN0207_L6.3mm_D2.5mm_P10.16mm_Horizontal" V 5780 4250 50  0001 C CNN
F 3 "~" H 5850 4250 50  0001 C CNN
	1    5850 4250
	1    0    0    -1  
$EndComp
$Comp
L Device:R R5
U 1 1 5D68977D
P 7550 4450
F 0 "R5" H 7620 4496 50  0000 L CNN
F 1 "100" H 7620 4405 50  0000 L CNN
F 2 "Resistor_THT:R_Axial_DIN0207_L6.3mm_D2.5mm_P10.16mm_Horizontal" V 7480 4450 50  0001 C CNN
F 3 "~" H 7550 4450 50  0001 C CNN
	1    7550 4450
	1    0    0    -1  
$EndComp
$Comp
L Device:C C4
U 1 1 5D68A17C
P 7200 4200
F 0 "C4" V 6948 4200 50  0000 C CNN
F 1 "33pF" V 7039 4200 50  0000 C CNN
F 2 "Capacitor_THT:C_Disc_D5.0mm_W2.5mm_P5.00mm" H 7238 4050 50  0001 C CNN
F 3 "~" H 7200 4200 50  0001 C CNN
	1    7200 4200
	0    1    1    0   
$EndComp
$Comp
L Device:C C2
U 1 1 5D68F28D
P 6300 4450
F 0 "C2" H 6415 4496 50  0000 L CNN
F 1 "100pF" H 6415 4405 50  0000 L CNN
F 2 "Capacitor_THT:C_Disc_D5.0mm_W2.5mm_P5.00mm" H 6338 4300 50  0001 C CNN
F 3 "~" H 6300 4450 50  0001 C CNN
	1    6300 4450
	1    0    0    -1  
$EndComp
$Comp
L Device:C C3
U 1 1 5D68F70F
P 6300 3950
F 0 "C3" H 6415 3996 50  0000 L CNN
F 1 "100pF" H 6415 3905 50  0000 L CNN
F 2 "Capacitor_THT:C_Disc_D5.0mm_W2.5mm_P5.00mm" H 6338 3800 50  0001 C CNN
F 3 "~" H 6300 3950 50  0001 C CNN
	1    6300 3950
	1    0    0    -1  
$EndComp
Wire Wire Line
	6800 3900 6800 4200
Wire Wire Line
	6800 4600 6800 4750
Wire Wire Line
	6800 4750 6300 4750
Wire Wire Line
	6300 4750 6300 4600
Wire Wire Line
	6300 4300 6300 4200
Wire Wire Line
	6300 3800 6300 3700
Wire Wire Line
	6300 3700 6500 3700
Wire Wire Line
	7050 4200 6800 4200
Connection ~ 6800 4200
Wire Wire Line
	6800 4200 6800 4300
Wire Wire Line
	6800 4200 6300 4200
Connection ~ 6300 4200
Wire Wire Line
	6300 4200 6300 4100
Wire Wire Line
	7350 4200 7550 4200
Wire Wire Line
	7550 4200 7550 4300
Wire Wire Line
	7550 4750 6800 4750
Wire Wire Line
	7550 4600 7550 4750
Connection ~ 6800 4750
Wire Wire Line
	5850 4100 5850 3700
Wire Wire Line
	5850 4400 5850 4750
Wire Wire Line
	5850 4750 6300 4750
Connection ~ 6300 4750
$Comp
L power:GND #PWR0101
U 1 1 5D698B34
P 5850 4750
F 0 "#PWR0101" H 5850 4500 50  0001 C CNN
F 1 "GND" H 5855 4577 50  0000 C CNN
F 2 "" H 5850 4750 50  0001 C CNN
F 3 "" H 5850 4750 50  0001 C CNN
	1    5850 4750
	1    0    0    -1  
$EndComp
Connection ~ 5850 4750
Wire Wire Line
	6300 3700 5850 3700
Connection ~ 6300 3700
Connection ~ 5850 3700
Wire Wire Line
	5850 3700 5850 3450
Wire Wire Line
	6800 3500 6800 3000
Wire Wire Line
	6800 3000 5850 3000
Wire Wire Line
	5850 3000 5850 3150
$Comp
L Device:C C1
U 1 1 5D69ABF3
P 5300 4500
F 0 "C1" H 5415 4546 50  0000 L CNN
F 1 "22.2pF" H 5415 4455 50  0000 L CNN
F 2 "Capacitor_THT:C_Disc_D5.0mm_W2.5mm_P5.00mm" H 5338 4350 50  0001 C CNN
F 3 "~" H 5300 4500 50  0001 C CNN
	1    5300 4500
	1    0    0    -1  
$EndComp
Wire Wire Line
	5850 4750 5300 4750
Wire Wire Line
	5300 4750 5300 4650
Wire Wire Line
	5300 4350 5300 4250
Wire Wire Line
	5300 3800 5300 3700
Wire Wire Line
	5300 3700 5850 3700
$Comp
L Device:D_Capacitance D1
U 1 1 5D69C4AE
P 4700 4500
F 0 "D1" V 4654 4579 50  0000 L CNN
F 1 "BB505B" V 4745 4579 50  0000 L CNN
F 2 "Diode_THT:D_DO-35_SOD27_P7.62mm_Horizontal" H 4700 4500 50  0001 C CNN
F 3 "~" H 4700 4500 50  0001 C CNN
	1    4700 4500
	0    1    1    0   
$EndComp
Wire Wire Line
	5300 4750 4700 4750
Wire Wire Line
	4700 4750 4700 4650
Connection ~ 5300 4750
Wire Wire Line
	4700 4350 4700 4250
Wire Wire Line
	4700 4250 5300 4250
Connection ~ 5300 4250
Wire Wire Line
	5300 4250 5300 4100
Connection ~ 4700 4750
Connection ~ 5850 3000
Connection ~ 4700 4250
$Comp
L Connector_Generic:Conn_01x02 J2
U 1 1 5D6AEE43
P 3650 4550
F 0 "J2" H 3568 4225 50  0000 C CNN
F 1 "Generador" H 3568 4316 50  0000 C CNN
F 2 "Connector_PinHeader_2.54mm:PinHeader_1x02_P2.54mm_Vertical" H 3650 4550 50  0001 C CNN
F 3 "~" H 3650 4550 50  0001 C CNN
	1    3650 4550
	-1   0    0    1   
$EndComp
$Comp
L Connector_Generic:Conn_01x02 J1
U 1 1 5D6AF7B1
P 3650 3750
F 0 "J1" H 3568 3425 50  0000 C CNN
F 1 "12V" H 3568 3516 50  0000 C CNN
F 2 "Connector_PinHeader_2.54mm:PinHeader_1x02_P2.54mm_Vertical" H 3650 3750 50  0001 C CNN
F 3 "~" H 3650 3750 50  0001 C CNN
	1    3650 3750
	-1   0    0    1   
$EndComp
Wire Wire Line
	3850 3650 4000 3650
Wire Wire Line
	4000 3650 4000 3000
$Comp
L power:GND #PWR0102
U 1 1 5D6B149D
P 4000 3850
F 0 "#PWR0102" H 4000 3600 50  0001 C CNN
F 1 "GND" H 4005 3677 50  0000 C CNN
F 2 "" H 4000 3850 50  0001 C CNN
F 3 "" H 4000 3850 50  0001 C CNN
	1    4000 3850
	1    0    0    -1  
$EndComp
Wire Wire Line
	3850 3750 4000 3750
Wire Wire Line
	4000 3750 4000 3850
Wire Wire Line
	3950 4550 3950 4750
Wire Wire Line
	3850 4550 3950 4550
Wire Wire Line
	3850 4450 3950 4450
Wire Wire Line
	3950 4450 3950 4250
$Comp
L Connector_Generic:Conn_01x02 J3
U 1 1 5D6B5223
P 8450 4400
F 0 "J3" H 8530 4392 50  0000 L CNN
F 1 "Salida" H 8530 4301 50  0000 L CNN
F 2 "Connector_PinHeader_2.54mm:PinHeader_1x02_P2.54mm_Vertical" H 8450 4400 50  0001 C CNN
F 3 "~" H 8450 4400 50  0001 C CNN
	1    8450 4400
	1    0    0    -1  
$EndComp
Wire Wire Line
	7550 4200 7850 4200
Wire Wire Line
	8100 4200 8100 4400
Wire Wire Line
	8100 4400 8250 4400
Connection ~ 7550 4200
Wire Wire Line
	8250 4500 8100 4500
Wire Wire Line
	8100 4500 8100 4750
Wire Wire Line
	8100 4750 7850 4750
Connection ~ 7550 4750
$Comp
L Device:R R6
U 1 1 5D6D3041
P 7850 4450
F 0 "R6" H 7920 4496 50  0000 L CNN
F 1 "100" H 7920 4405 50  0000 L CNN
F 2 "Resistor_THT:R_Axial_DIN0207_L6.3mm_D2.5mm_P10.16mm_Horizontal" V 7780 4450 50  0001 C CNN
F 3 "~" H 7850 4450 50  0001 C CNN
	1    7850 4450
	1    0    0    -1  
$EndComp
Wire Wire Line
	7850 4600 7850 4750
Connection ~ 7850 4750
Wire Wire Line
	7850 4750 7550 4750
Wire Wire Line
	7850 4300 7850 4200
Connection ~ 7850 4200
Wire Wire Line
	7850 4200 8100 4200
$Comp
L Device:L L1
U 1 1 5D69A02C
P 5300 3950
F 0 "L1" H 5352 3996 50  0000 L CNN
F 1 "120nH" H 5352 3905 50  0000 L CNN
F 2 "Inductor_THT:L_Axial_L7.0mm_D3.3mm_P12.70mm_Horizontal_Fastron_MICC" H 5300 3950 50  0001 C CNN
F 3 "~" H 5300 3950 50  0001 C CNN
	1    5300 3950
	1    0    0    -1  
$EndComp
Wire Wire Line
	4000 3000 5850 3000
Wire Wire Line
	3950 4250 4100 4250
Wire Wire Line
	3950 4750 4700 4750
$Comp
L Device:R R1
U 1 1 5D6F6F9E
P 4250 4250
F 0 "R1" V 4043 4250 50  0000 C CNN
F 1 "10k" V 4134 4250 50  0000 C CNN
F 2 "Resistor_THT:R_Axial_DIN0207_L6.3mm_D2.5mm_P10.16mm_Horizontal" V 4180 4250 50  0001 C CNN
F 3 "~" H 4250 4250 50  0001 C CNN
	1    4250 4250
	0    1    1    0   
$EndComp
Wire Wire Line
	4400 4250 4700 4250
$EndSCHEMATC
